[gd_resource type="RichTextEffect" load_steps=2 format=3 uid="uid://dikecjvqm1ml0"]

[ext_resource type="Script" path="res://mods/embryo/menu/font_fx/unskew/unskew.gd" id="1_fivxt"]

[resource]
script = ExtResource("1_fivxt")
